{
  "__type__": "cc.AnimationClip",
  "_name": "PlayerRun",
  "_objFlags": 0,
  "_native": "",
  "_duration": 0.5555555555555556,
  "sample": 9,
  "speed": 0.6,
  "wrapMode": 2,
  "curveData": {
    "comps": {
      "cc.Sprite": {
        "spriteFrame": [
          {
            "frame": 0,
            "value": {
              "__uuid__": "4add207c-0a26-4db0-aaed-c57edd9e4858"
            }
          },
          {
            "frame": 0.1111111111111111,
            "value": {
              "__uuid__": "cbe8d021-df88-4cc2-aba3-7b4993776250"
            }
          },
          {
            "frame": 0.2222222222222222,
            "value": {
              "__uuid__": "31266188-a6c0-4edd-88cf-c9ab5305b835"
            }
          },
          {
            "frame": 0.3333333333333333,
            "value": {
              "__uuid__": "cbe8d021-df88-4cc2-aba3-7b4993776250"
            }
          },
          {
            "frame": 0.4444444444444444,
            "value": {
              "__uuid__": "4add207c-0a26-4db0-aaed-c57edd9e4858"
            }
          }
        ]
      }
    }
  },
  "events": []
}